Analysis of Dative Priming Data at 42 months
…
Notice that threw only had DODs in prime bias match and PODs in prime bias mismatch. This is because the two verbs that primed threw were both DOD-biased verbs. The opposite should be true for gave; however, on some trials participants produced gave instead of the target verb provided by the experimenter. We can see the numbers of those below:

DOD_42mo %>% 
  filter(Overlap == "No Overlap") %>%
  group_by(Target.verb, Prime, biasmatch) %>%
  count()

## # A tibble: 22 x 4
## # Groups:   Target.verb, Prime, biasmatch [22]
##    Target.verb Prime biasmatch     n
##    <chr>       <chr> <chr>     <int>
##  1 brought     DOD   match        14
##  2 brought     DOD   mismatch     19
##  3 brought     POD   match        15
##  4 brought     POD   mismatch     15
##  5 gave        DOD   match         1
##  6 gave        DOD   mismatch     35
##  7 gave        POD   match        34
##  8 gave        POD   mismatch      2
##  9 passed      DOD   match         9
## 10 passed      DOD   mismatch     21
## # ... with 12 more rows
…
